EESchema Schematic File Version 4
EELAYER 30 0
EELAYER END
$Descr A4 11693 8268
encoding utf-8
Sheet 1 1
Title ""
Date ""
Rev ""
Comp ""
Comment1 ""
Comment2 ""
Comment3 ""
Comment4 ""
$EndDescr
$Comp
L kahiwi:RJ45-CAN J3
U 1 1 60700AA1
P 9300 3300
F 0 "J3" H 9630 3346 50  0000 L CNN
F 1 "RJ45-CAN" H 9630 3255 50  0000 L CNN
F 2 "Connector_RJ:RJ45_OST_PJ012-8P8CX_Vertical" V 9300 3325 50  0001 C CNN
F 3 "~" V 9300 3325 50  0001 C CNN
	1    9300 3300
	1    0    0    -1  
$EndComp
$Comp
L Connector:Conn_01x08_Male J2
U 1 1 60701F09
P 7350 3250
F 0 "J2" H 7458 3731 50  0000 C CNN
F 1 "Conn_01x08_Male" H 7458 3640 50  0000 C CNN
F 2 "Connector_PinHeader_2.54mm:PinHeader_1x08_P2.54mm_Vertical" H 7350 3250 50  0001 C CNN
F 3 "~" H 7350 3250 50  0001 C CNN
	1    7350 3250
	1    0    0    -1  
$EndComp
$Comp
L kahiwi:WAGO250-208 J1
U 1 1 60702B2B
P 6350 3300
F 0 "J1" H 6308 3965 50  0000 C CNN
F 1 "WAGO250-208" H 6308 3874 50  0000 C CNN
F 2 "kahiwi:WAGO250-208" H 6308 3783 50  0000 C CNN
F 3 "https://cdn-reichelt.de/documents/datenblatt/C151/WAGO250-20X.pdf" H 6250 3250 50  0001 C CNN
	1    6350 3300
	1    0    0    -1  
$EndComp
Wire Wire Line
	6450 2950 7550 2950
Connection ~ 7550 2950
Wire Wire Line
	6450 3050 7550 3050
Connection ~ 7550 3050
Wire Wire Line
	7550 3050 8000 3050
Wire Wire Line
	8900 3150 7550 3150
Connection ~ 7550 3150
Wire Wire Line
	7550 3150 6450 3150
Wire Wire Line
	6450 3250 7550 3250
Connection ~ 7550 3250
Wire Wire Line
	7550 3250 8900 3250
Wire Wire Line
	8900 3350 7550 3350
Connection ~ 7550 3350
Wire Wire Line
	7550 3350 6450 3350
Wire Wire Line
	6450 3450 7550 3450
Connection ~ 7550 3450
Wire Wire Line
	7550 3450 8900 3450
Wire Wire Line
	8900 3550 8250 3550
Connection ~ 7550 3550
Wire Wire Line
	7550 3550 6450 3550
Wire Wire Line
	6450 3650 7550 3650
Connection ~ 7550 3650
$Comp
L Device:LED D1
U 1 1 60705BB4
P 8250 2900
F 0 "D1" V 8197 2980 50  0000 L CNN
F 1 "LED" V 8288 2980 50  0000 L CNN
F 2 "LED_SMD:LED_0603_1608Metric_Pad1.05x0.95mm_HandSolder" H 8250 2900 50  0001 C CNN
F 3 "~" H 8250 2900 50  0001 C CNN
	1    8250 2900
	0    1    1    0   
$EndComp
Connection ~ 8250 3050
Wire Wire Line
	8250 3050 8900 3050
$Comp
L Device:LED D2
U 1 1 60706748
P 8250 3700
F 0 "D2" V 8289 3582 50  0000 R CNN
F 1 "LED" V 8198 3582 50  0000 R CNN
F 2 "LED_SMD:LED_0603_1608Metric_Pad1.05x0.95mm_HandSolder" H 8250 3700 50  0001 C CNN
F 3 "~" H 8250 3700 50  0001 C CNN
	1    8250 3700
	0    -1   -1   0   
$EndComp
Connection ~ 8250 3550
Wire Wire Line
	8250 3550 8000 3550
$Comp
L Device:R R1
U 1 1 607070EB
P 8250 2600
F 0 "R1" H 8320 2646 50  0000 L CNN
F 1 "R" H 8320 2555 50  0000 L CNN
F 2 "Resistor_SMD:R_0603_1608Metric_Pad0.98x0.95mm_HandSolder" V 8180 2600 50  0001 C CNN
F 3 "~" H 8250 2600 50  0001 C CNN
	1    8250 2600
	1    0    0    -1  
$EndComp
$Comp
L Device:R R2
U 1 1 607073C7
P 8250 4000
F 0 "R2" H 8320 4046 50  0000 L CNN
F 1 "R" H 8320 3955 50  0000 L CNN
F 2 "Resistor_SMD:R_0603_1608Metric_Pad0.98x0.95mm_HandSolder" V 8180 4000 50  0001 C CNN
F 3 "~" H 8250 4000 50  0001 C CNN
	1    8250 4000
	1    0    0    -1  
$EndComp
Wire Wire Line
	8250 4150 8900 4150
Wire Wire Line
	8900 4150 8900 3650
Connection ~ 8900 3650
Wire Wire Line
	8900 2950 8900 2450
Wire Wire Line
	8900 2450 8250 2450
Connection ~ 8900 2950
Text Label 8550 3150 0    50   ~ 0
CANL+
Text Label 8550 3350 0    50   ~ 0
CANH-
Text Label 8550 3250 0    50   ~ 0
CANL-
Text Label 8550 3450 0    50   ~ 0
CANH+
$Comp
L power:+5V #PWR0101
U 1 1 6070EC13
P 8000 3550
F 0 "#PWR0101" H 8000 3400 50  0001 C CNN
F 1 "+5V" V 8015 3678 50  0000 L CNN
F 2 "" H 8000 3550 50  0001 C CNN
F 3 "" H 8000 3550 50  0001 C CNN
	1    8000 3550
	0    -1   -1   0   
$EndComp
Connection ~ 8000 3550
Wire Wire Line
	8000 3550 7550 3550
$Comp
L power:+12V #PWR0102
U 1 1 6070F6CF
P 8000 3050
F 0 "#PWR0102" H 8000 2900 50  0001 C CNN
F 1 "+12V" V 8015 3178 50  0000 L CNN
F 2 "" H 8000 3050 50  0001 C CNN
F 3 "" H 8000 3050 50  0001 C CNN
	1    8000 3050
	0    -1   -1   0   
$EndComp
Connection ~ 8000 3050
Wire Wire Line
	8000 3050 8250 3050
Wire Wire Line
	7550 2950 8900 2950
Wire Wire Line
	7550 3650 8900 3650
Text Label 8550 2950 0    50   ~ 0
GND12V
Text Label 8550 3650 0    50   ~ 0
GND5V
$Comp
L Mechanical:MountingHole H1
U 1 1 60712D02
P 8750 2050
F 0 "H1" H 8850 2096 50  0000 L CNN
F 1 "MountingHole" H 8850 2005 50  0000 L CNN
F 2 "MountingHole:MountingHole_3.2mm_M3_DIN965" H 8750 2050 50  0001 C CNN
F 3 "~" H 8750 2050 50  0001 C CNN
	1    8750 2050
	1    0    0    -1  
$EndComp
$Comp
L Mechanical:MountingHole H2
U 1 1 60712F9D
P 9350 2050
F 0 "H2" H 9450 2096 50  0000 L CNN
F 1 "MountingHole" H 9450 2005 50  0000 L CNN
F 2 "MountingHole:MountingHole_3.2mm_M3_DIN965" H 9350 2050 50  0001 C CNN
F 3 "~" H 9350 2050 50  0001 C CNN
	1    9350 2050
	1    0    0    -1  
$EndComp
$Comp
L power:GND #PWR01
U 1 1 60716E18
P 8100 2000
F 0 "#PWR01" H 8100 1750 50  0001 C CNN
F 1 "GND" H 8105 1827 50  0000 C CNN
F 2 "" H 8100 2000 50  0001 C CNN
F 3 "" H 8100 2000 50  0001 C CNN
	1    8100 2000
	-1   0    0    1   
$EndComp
$Comp
L kahiwi:RJ45-CAN J4
U 1 1 6070AC3F
P 5450 3300
F 0 "J4" H 5780 3346 50  0000 L CNN
F 1 "RJ45-CAN" H 5780 3255 50  0000 L CNN
F 2 "Connector_RJ:RJ45_OST_PJ012-8P8CX_Vertical" V 5450 3325 50  0001 C CNN
F 3 "~" V 5450 3325 50  0001 C CNN
	1    5450 3300
	-1   0    0    -1  
$EndComp
Wire Wire Line
	5850 2950 6450 2950
Connection ~ 6450 2950
Wire Wire Line
	6450 3050 5850 3050
Connection ~ 6450 3050
Wire Wire Line
	6450 3150 5850 3150
Connection ~ 6450 3150
Wire Wire Line
	5850 3250 6450 3250
Connection ~ 6450 3250
Wire Wire Line
	6450 3350 5850 3350
Connection ~ 6450 3350
Wire Wire Line
	5850 3450 6450 3450
Connection ~ 6450 3450
Wire Wire Line
	6450 3550 5850 3550
Connection ~ 6450 3550
Wire Wire Line
	5850 3650 6450 3650
Connection ~ 6450 3650
$Comp
L Mechanical:MountingHole H3
U 1 1 6071CBA0
P 8750 1650
F 0 "H3" H 8850 1696 50  0000 L CNN
F 1 "MountingHole" H 8850 1605 50  0000 L CNN
F 2 "MountingHole:MountingHole_3.2mm_M3_DIN965" H 8750 1650 50  0001 C CNN
F 3 "~" H 8750 1650 50  0001 C CNN
	1    8750 1650
	1    0    0    -1  
$EndComp
$Comp
L Mechanical:MountingHole H4
U 1 1 6071CF24
P 9350 1650
F 0 "H4" H 9450 1696 50  0000 L CNN
F 1 "MountingHole" H 9450 1605 50  0000 L CNN
F 2 "MountingHole:MountingHole_3.2mm_M3_DIN965" H 9350 1650 50  0001 C CNN
F 3 "~" H 9350 1650 50  0001 C CNN
	1    9350 1650
	1    0    0    -1  
$EndComp
$EndSCHEMATC
