G04 #@! TF.GenerationSoftware,KiCad,Pcbnew,5.1.7-a382d34a8~88~ubuntu18.04.1*
G04 #@! TF.CreationDate,2021-05-12T09:52:41+02:00*
G04 #@! TF.ProjectId,canHeader,63616e48-6561-4646-9572-2e6b69636164,rev?*
G04 #@! TF.SameCoordinates,Original*
G04 #@! TF.FileFunction,Copper,L2,Bot*
G04 #@! TF.FilePolarity,Positive*
%FSLAX46Y46*%
G04 Gerber Fmt 4.6, Leading zero omitted, Abs format (unit mm)*
G04 Created by KiCad (PCBNEW 5.1.7-a382d34a8~88~ubuntu18.04.1) date 2021-05-12 09:52:41*
%MOMM*%
%LPD*%
G01*
G04 APERTURE LIST*
G04 #@! TA.AperFunction,WasherPad*
%ADD10C,3.650000*%
G04 #@! TD*
G04 #@! TA.AperFunction,ComponentPad*
%ADD11R,1.500000X1.500000*%
G04 #@! TD*
G04 #@! TA.AperFunction,ComponentPad*
%ADD12C,1.500000*%
G04 #@! TD*
G04 #@! TA.AperFunction,ComponentPad*
%ADD13C,2.800000*%
G04 #@! TD*
G04 #@! TA.AperFunction,ComponentPad*
%ADD14O,1.700000X1.700000*%
G04 #@! TD*
G04 #@! TA.AperFunction,ComponentPad*
%ADD15R,1.700000X1.700000*%
G04 #@! TD*
G04 #@! TA.AperFunction,NonConductor*
%ADD16C,0.254000*%
G04 #@! TD*
G04 #@! TA.AperFunction,NonConductor*
%ADD17C,0.100000*%
G04 #@! TD*
G04 APERTURE END LIST*
D10*
G04 #@! TO.P,J4,*
G04 #@! TO.N,*
X129650000Y-106340000D03*
X129650000Y-117770000D03*
D11*
G04 #@! TO.P,J4,1*
G04 #@! TO.N,/GND12V*
X136000000Y-116500000D03*
D12*
G04 #@! TO.P,J4,2*
G04 #@! TO.N,+12V*
X138540000Y-115230000D03*
G04 #@! TO.P,J4,3*
G04 #@! TO.N,/CANL+*
X136000000Y-113960000D03*
G04 #@! TO.P,J4,4*
G04 #@! TO.N,/CANL-*
X138540000Y-112690000D03*
G04 #@! TO.P,J4,5*
G04 #@! TO.N,/CANH-*
X136000000Y-111420000D03*
G04 #@! TO.P,J4,6*
G04 #@! TO.N,/CANH+*
X138540000Y-110150000D03*
G04 #@! TO.P,J4,7*
G04 #@! TO.N,+5V*
X136000000Y-108880000D03*
G04 #@! TO.P,J4,8*
G04 #@! TO.N,/GND5V*
X138540000Y-107610000D03*
G04 #@! TD*
D13*
G04 #@! TO.P,J1,8*
G04 #@! TO.N,/GND5V*
X149780000Y-100976000D03*
G04 #@! TO.P,J1,7*
G04 #@! TO.N,+5V*
X144780000Y-104476000D03*
G04 #@! TO.P,J1,6*
G04 #@! TO.N,/CANH+*
X149780000Y-107976000D03*
G04 #@! TO.P,J1,5*
G04 #@! TO.N,/CANH-*
X144780000Y-111476000D03*
G04 #@! TO.P,J1,4*
G04 #@! TO.N,/CANL-*
X149780000Y-114976000D03*
G04 #@! TO.P,J1,3*
G04 #@! TO.N,/CANL+*
X144780000Y-118476000D03*
G04 #@! TO.P,J1,2*
G04 #@! TO.N,+12V*
X149780000Y-121976000D03*
G04 #@! TO.P,J1,1*
G04 #@! TO.N,/GND12V*
X144780000Y-125476000D03*
G04 #@! TD*
D10*
G04 #@! TO.P,J3,*
G04 #@! TO.N,*
X175550000Y-107340000D03*
X175550000Y-118770000D03*
D11*
G04 #@! TO.P,J3,1*
G04 #@! TO.N,/GND12V*
X169200000Y-117500000D03*
D12*
G04 #@! TO.P,J3,2*
G04 #@! TO.N,+12V*
X166660000Y-116230000D03*
G04 #@! TO.P,J3,3*
G04 #@! TO.N,/CANL+*
X169200000Y-114960000D03*
G04 #@! TO.P,J3,4*
G04 #@! TO.N,/CANL-*
X166660000Y-113690000D03*
G04 #@! TO.P,J3,5*
G04 #@! TO.N,/CANH-*
X169200000Y-112420000D03*
G04 #@! TO.P,J3,6*
G04 #@! TO.N,/CANH+*
X166660000Y-111150000D03*
G04 #@! TO.P,J3,7*
G04 #@! TO.N,+5V*
X169200000Y-109880000D03*
G04 #@! TO.P,J3,8*
G04 #@! TO.N,/GND5V*
X166660000Y-108610000D03*
G04 #@! TD*
D14*
G04 #@! TO.P,J2,8*
G04 #@! TO.N,/GND5V*
X160550000Y-103570000D03*
G04 #@! TO.P,J2,7*
G04 #@! TO.N,+5V*
X160550000Y-106110000D03*
G04 #@! TO.P,J2,6*
G04 #@! TO.N,/CANH+*
X160550000Y-108650000D03*
G04 #@! TO.P,J2,5*
G04 #@! TO.N,/CANH-*
X160550000Y-111190000D03*
G04 #@! TO.P,J2,4*
G04 #@! TO.N,/CANL-*
X160550000Y-113730000D03*
G04 #@! TO.P,J2,3*
G04 #@! TO.N,/CANL+*
X160550000Y-116270000D03*
G04 #@! TO.P,J2,2*
G04 #@! TO.N,+12V*
X160550000Y-118810000D03*
D15*
G04 #@! TO.P,J2,1*
G04 #@! TO.N,/GND12V*
X160550000Y-121350000D03*
G04 #@! TD*
D16*
X132105050Y-98124176D02*
X131697176Y-98734604D01*
X131416227Y-99412874D01*
X131273000Y-100132923D01*
X131273000Y-100867077D01*
X131416227Y-101587126D01*
X131697176Y-102265396D01*
X132105050Y-102875824D01*
X132624176Y-103394950D01*
X133234604Y-103802824D01*
X133912874Y-104083773D01*
X134632923Y-104227000D01*
X135367077Y-104227000D01*
X136087126Y-104083773D01*
X136765396Y-103802824D01*
X137375824Y-103394950D01*
X137894950Y-102875824D01*
X138302824Y-102265396D01*
X138583773Y-101587126D01*
X138727000Y-100867077D01*
X138727000Y-100775570D01*
X147745000Y-100775570D01*
X147745000Y-101176430D01*
X147823204Y-101569587D01*
X147976607Y-101939934D01*
X148199313Y-102273237D01*
X148482763Y-102556687D01*
X148816066Y-102779393D01*
X149186413Y-102932796D01*
X149579570Y-103011000D01*
X149980430Y-103011000D01*
X150373587Y-102932796D01*
X150743934Y-102779393D01*
X151077237Y-102556687D01*
X151360687Y-102273237D01*
X151583393Y-101939934D01*
X151736796Y-101569587D01*
X151815000Y-101176430D01*
X151815000Y-100775570D01*
X151736796Y-100382413D01*
X151583393Y-100012066D01*
X151360687Y-99678763D01*
X151077237Y-99395313D01*
X150743934Y-99172607D01*
X150373587Y-99019204D01*
X149980430Y-98941000D01*
X149579570Y-98941000D01*
X149186413Y-99019204D01*
X148816066Y-99172607D01*
X148482763Y-99395313D01*
X148199313Y-99678763D01*
X147976607Y-100012066D01*
X147823204Y-100382413D01*
X147745000Y-100775570D01*
X138727000Y-100775570D01*
X138727000Y-100132923D01*
X138583773Y-99412874D01*
X138302824Y-98734604D01*
X137894950Y-98124176D01*
X137455774Y-97685000D01*
X168544226Y-97685000D01*
X168105050Y-98124176D01*
X167697176Y-98734604D01*
X167416227Y-99412874D01*
X167273000Y-100132923D01*
X167273000Y-100867077D01*
X167416227Y-101587126D01*
X167697176Y-102265396D01*
X168105050Y-102875824D01*
X168624176Y-103394950D01*
X169234604Y-103802824D01*
X169912874Y-104083773D01*
X170632923Y-104227000D01*
X171367077Y-104227000D01*
X172087126Y-104083773D01*
X172765396Y-103802824D01*
X173375824Y-103394950D01*
X173894950Y-102875824D01*
X174302824Y-102265396D01*
X174583773Y-101587126D01*
X174727000Y-100867077D01*
X174727000Y-100132923D01*
X174583773Y-99412874D01*
X174302824Y-98734604D01*
X173894950Y-98124176D01*
X173455774Y-97685000D01*
X182315000Y-97685000D01*
X182315001Y-128315000D01*
X173455774Y-128315000D01*
X173894950Y-127875824D01*
X174302824Y-127265396D01*
X174583773Y-126587126D01*
X174727000Y-125867077D01*
X174727000Y-125132923D01*
X174583773Y-124412874D01*
X174302824Y-123734604D01*
X173894950Y-123124176D01*
X173375824Y-122605050D01*
X172765396Y-122197176D01*
X172087126Y-121916227D01*
X171367077Y-121773000D01*
X170632923Y-121773000D01*
X169912874Y-121916227D01*
X169234604Y-122197176D01*
X168624176Y-122605050D01*
X168105050Y-123124176D01*
X167697176Y-123734604D01*
X167416227Y-124412874D01*
X167273000Y-125132923D01*
X167273000Y-125867077D01*
X167416227Y-126587126D01*
X167697176Y-127265396D01*
X168105050Y-127875824D01*
X168544226Y-128315000D01*
X137455774Y-128315000D01*
X137894950Y-127875824D01*
X138302824Y-127265396D01*
X138583773Y-126587126D01*
X138727000Y-125867077D01*
X138727000Y-125275570D01*
X142745000Y-125275570D01*
X142745000Y-125676430D01*
X142823204Y-126069587D01*
X142976607Y-126439934D01*
X143199313Y-126773237D01*
X143482763Y-127056687D01*
X143816066Y-127279393D01*
X144186413Y-127432796D01*
X144579570Y-127511000D01*
X144980430Y-127511000D01*
X145373587Y-127432796D01*
X145743934Y-127279393D01*
X146077237Y-127056687D01*
X146360687Y-126773237D01*
X146583393Y-126439934D01*
X146736796Y-126069587D01*
X146815000Y-125676430D01*
X146815000Y-125275570D01*
X146736796Y-124882413D01*
X146583393Y-124512066D01*
X146360687Y-124178763D01*
X146077237Y-123895313D01*
X145743934Y-123672607D01*
X145373587Y-123519204D01*
X144980430Y-123441000D01*
X144579570Y-123441000D01*
X144186413Y-123519204D01*
X143816066Y-123672607D01*
X143482763Y-123895313D01*
X143199313Y-124178763D01*
X142976607Y-124512066D01*
X142823204Y-124882413D01*
X142745000Y-125275570D01*
X138727000Y-125275570D01*
X138727000Y-125132923D01*
X138583773Y-124412874D01*
X138302824Y-123734604D01*
X137894950Y-123124176D01*
X137375824Y-122605050D01*
X136765396Y-122197176D01*
X136087126Y-121916227D01*
X135379998Y-121775570D01*
X147745000Y-121775570D01*
X147745000Y-122176430D01*
X147823204Y-122569587D01*
X147976607Y-122939934D01*
X148199313Y-123273237D01*
X148482763Y-123556687D01*
X148816066Y-123779393D01*
X149186413Y-123932796D01*
X149579570Y-124011000D01*
X149980430Y-124011000D01*
X150373587Y-123932796D01*
X150743934Y-123779393D01*
X151077237Y-123556687D01*
X151360687Y-123273237D01*
X151583393Y-122939934D01*
X151736796Y-122569587D01*
X151815000Y-122176430D01*
X151815000Y-121775570D01*
X151736796Y-121382413D01*
X151583393Y-121012066D01*
X151360687Y-120678763D01*
X151181924Y-120500000D01*
X159061928Y-120500000D01*
X159061928Y-122200000D01*
X159074188Y-122324482D01*
X159110498Y-122444180D01*
X159169463Y-122554494D01*
X159248815Y-122651185D01*
X159345506Y-122730537D01*
X159455820Y-122789502D01*
X159575518Y-122825812D01*
X159700000Y-122838072D01*
X161400000Y-122838072D01*
X161524482Y-122825812D01*
X161644180Y-122789502D01*
X161754494Y-122730537D01*
X161851185Y-122651185D01*
X161930537Y-122554494D01*
X161989502Y-122444180D01*
X162025812Y-122324482D01*
X162038072Y-122200000D01*
X162038072Y-120500000D01*
X162025812Y-120375518D01*
X161989502Y-120255820D01*
X161930537Y-120145506D01*
X161851185Y-120048815D01*
X161754494Y-119969463D01*
X161644180Y-119910498D01*
X161571620Y-119888487D01*
X161703475Y-119756632D01*
X161865990Y-119513411D01*
X161977932Y-119243158D01*
X162035000Y-118956260D01*
X162035000Y-118663740D01*
X161977932Y-118376842D01*
X161865990Y-118106589D01*
X161703475Y-117863368D01*
X161496632Y-117656525D01*
X161322240Y-117540000D01*
X161496632Y-117423475D01*
X161703475Y-117216632D01*
X161865990Y-116973411D01*
X161977932Y-116703158D01*
X162035000Y-116416260D01*
X162035000Y-116123740D01*
X161977932Y-115836842D01*
X161865990Y-115566589D01*
X161703475Y-115323368D01*
X161496632Y-115116525D01*
X161322240Y-115000000D01*
X161496632Y-114883475D01*
X161703475Y-114676632D01*
X161865990Y-114433411D01*
X161977932Y-114163158D01*
X162035000Y-113876260D01*
X162035000Y-113583740D01*
X161977932Y-113296842D01*
X161865990Y-113026589D01*
X161703475Y-112783368D01*
X161496632Y-112576525D01*
X161322240Y-112460000D01*
X161496632Y-112343475D01*
X161703475Y-112136632D01*
X161865990Y-111893411D01*
X161977932Y-111623158D01*
X162035000Y-111336260D01*
X162035000Y-111043740D01*
X161977932Y-110756842D01*
X161865990Y-110486589D01*
X161703475Y-110243368D01*
X161496632Y-110036525D01*
X161322240Y-109920000D01*
X161496632Y-109803475D01*
X161703475Y-109596632D01*
X161865990Y-109353411D01*
X161977932Y-109083158D01*
X162035000Y-108796260D01*
X162035000Y-108503740D01*
X162029003Y-108473589D01*
X165275000Y-108473589D01*
X165275000Y-108746411D01*
X165328225Y-109013989D01*
X165432629Y-109266043D01*
X165584201Y-109492886D01*
X165777114Y-109685799D01*
X166003957Y-109837371D01*
X166106873Y-109880000D01*
X166003957Y-109922629D01*
X165777114Y-110074201D01*
X165584201Y-110267114D01*
X165432629Y-110493957D01*
X165328225Y-110746011D01*
X165275000Y-111013589D01*
X165275000Y-111286411D01*
X165328225Y-111553989D01*
X165432629Y-111806043D01*
X165584201Y-112032886D01*
X165777114Y-112225799D01*
X166003957Y-112377371D01*
X166106873Y-112420000D01*
X166003957Y-112462629D01*
X165777114Y-112614201D01*
X165584201Y-112807114D01*
X165432629Y-113033957D01*
X165328225Y-113286011D01*
X165275000Y-113553589D01*
X165275000Y-113826411D01*
X165328225Y-114093989D01*
X165432629Y-114346043D01*
X165584201Y-114572886D01*
X165777114Y-114765799D01*
X166003957Y-114917371D01*
X166106873Y-114960000D01*
X166003957Y-115002629D01*
X165777114Y-115154201D01*
X165584201Y-115347114D01*
X165432629Y-115573957D01*
X165328225Y-115826011D01*
X165275000Y-116093589D01*
X165275000Y-116366411D01*
X165328225Y-116633989D01*
X165432629Y-116886043D01*
X165584201Y-117112886D01*
X165777114Y-117305799D01*
X166003957Y-117457371D01*
X166256011Y-117561775D01*
X166523589Y-117615000D01*
X166796411Y-117615000D01*
X167063989Y-117561775D01*
X167316043Y-117457371D01*
X167542886Y-117305799D01*
X167735799Y-117112886D01*
X167811928Y-116998951D01*
X167811928Y-118250000D01*
X167824188Y-118374482D01*
X167860498Y-118494180D01*
X167919463Y-118604494D01*
X167998815Y-118701185D01*
X168095506Y-118780537D01*
X168205820Y-118839502D01*
X168325518Y-118875812D01*
X168450000Y-118888072D01*
X169950000Y-118888072D01*
X170074482Y-118875812D01*
X170194180Y-118839502D01*
X170304494Y-118780537D01*
X170401185Y-118701185D01*
X170480537Y-118604494D01*
X170521579Y-118527711D01*
X173090000Y-118527711D01*
X173090000Y-119012289D01*
X173184536Y-119487556D01*
X173369976Y-119935247D01*
X173639193Y-120338159D01*
X173981841Y-120680807D01*
X174384753Y-120950024D01*
X174832444Y-121135464D01*
X175307711Y-121230000D01*
X175792289Y-121230000D01*
X176267556Y-121135464D01*
X176715247Y-120950024D01*
X177118159Y-120680807D01*
X177460807Y-120338159D01*
X177730024Y-119935247D01*
X177915464Y-119487556D01*
X178010000Y-119012289D01*
X178010000Y-118527711D01*
X177915464Y-118052444D01*
X177730024Y-117604753D01*
X177460807Y-117201841D01*
X177118159Y-116859193D01*
X176715247Y-116589976D01*
X176267556Y-116404536D01*
X175792289Y-116310000D01*
X175307711Y-116310000D01*
X174832444Y-116404536D01*
X174384753Y-116589976D01*
X173981841Y-116859193D01*
X173639193Y-117201841D01*
X173369976Y-117604753D01*
X173184536Y-118052444D01*
X173090000Y-118527711D01*
X170521579Y-118527711D01*
X170539502Y-118494180D01*
X170575812Y-118374482D01*
X170588072Y-118250000D01*
X170588072Y-116750000D01*
X170575812Y-116625518D01*
X170539502Y-116505820D01*
X170480537Y-116395506D01*
X170401185Y-116298815D01*
X170304494Y-116219463D01*
X170194180Y-116160498D01*
X170074482Y-116124188D01*
X169966517Y-116113555D01*
X170082886Y-116035799D01*
X170275799Y-115842886D01*
X170427371Y-115616043D01*
X170531775Y-115363989D01*
X170585000Y-115096411D01*
X170585000Y-114823589D01*
X170531775Y-114556011D01*
X170427371Y-114303957D01*
X170275799Y-114077114D01*
X170082886Y-113884201D01*
X169856043Y-113732629D01*
X169753127Y-113690000D01*
X169856043Y-113647371D01*
X170082886Y-113495799D01*
X170275799Y-113302886D01*
X170427371Y-113076043D01*
X170531775Y-112823989D01*
X170585000Y-112556411D01*
X170585000Y-112283589D01*
X170531775Y-112016011D01*
X170427371Y-111763957D01*
X170275799Y-111537114D01*
X170082886Y-111344201D01*
X169856043Y-111192629D01*
X169753127Y-111150000D01*
X169856043Y-111107371D01*
X170082886Y-110955799D01*
X170275799Y-110762886D01*
X170427371Y-110536043D01*
X170531775Y-110283989D01*
X170585000Y-110016411D01*
X170585000Y-109743589D01*
X170531775Y-109476011D01*
X170427371Y-109223957D01*
X170275799Y-108997114D01*
X170082886Y-108804201D01*
X169856043Y-108652629D01*
X169603989Y-108548225D01*
X169336411Y-108495000D01*
X169063589Y-108495000D01*
X168796011Y-108548225D01*
X168543957Y-108652629D01*
X168317114Y-108804201D01*
X168124201Y-108997114D01*
X167972629Y-109223957D01*
X167868225Y-109476011D01*
X167815000Y-109743589D01*
X167815000Y-110016411D01*
X167868225Y-110283989D01*
X167972629Y-110536043D01*
X168124201Y-110762886D01*
X168317114Y-110955799D01*
X168543957Y-111107371D01*
X168646873Y-111150000D01*
X168543957Y-111192629D01*
X168317114Y-111344201D01*
X168124201Y-111537114D01*
X167972629Y-111763957D01*
X167868225Y-112016011D01*
X167815000Y-112283589D01*
X167815000Y-112556411D01*
X167868225Y-112823989D01*
X167972629Y-113076043D01*
X168124201Y-113302886D01*
X168317114Y-113495799D01*
X168543957Y-113647371D01*
X168646873Y-113690000D01*
X168543957Y-113732629D01*
X168317114Y-113884201D01*
X168124201Y-114077114D01*
X167972629Y-114303957D01*
X167868225Y-114556011D01*
X167815000Y-114823589D01*
X167815000Y-115096411D01*
X167868225Y-115363989D01*
X167972629Y-115616043D01*
X168124201Y-115842886D01*
X168317114Y-116035799D01*
X168433483Y-116113555D01*
X168325518Y-116124188D01*
X168205820Y-116160498D01*
X168095506Y-116219463D01*
X168045000Y-116260912D01*
X168045000Y-116093589D01*
X167991775Y-115826011D01*
X167887371Y-115573957D01*
X167735799Y-115347114D01*
X167542886Y-115154201D01*
X167316043Y-115002629D01*
X167213127Y-114960000D01*
X167316043Y-114917371D01*
X167542886Y-114765799D01*
X167735799Y-114572886D01*
X167887371Y-114346043D01*
X167991775Y-114093989D01*
X168045000Y-113826411D01*
X168045000Y-113553589D01*
X167991775Y-113286011D01*
X167887371Y-113033957D01*
X167735799Y-112807114D01*
X167542886Y-112614201D01*
X167316043Y-112462629D01*
X167213127Y-112420000D01*
X167316043Y-112377371D01*
X167542886Y-112225799D01*
X167735799Y-112032886D01*
X167887371Y-111806043D01*
X167991775Y-111553989D01*
X168045000Y-111286411D01*
X168045000Y-111013589D01*
X167991775Y-110746011D01*
X167887371Y-110493957D01*
X167735799Y-110267114D01*
X167542886Y-110074201D01*
X167316043Y-109922629D01*
X167213127Y-109880000D01*
X167316043Y-109837371D01*
X167542886Y-109685799D01*
X167735799Y-109492886D01*
X167887371Y-109266043D01*
X167991775Y-109013989D01*
X168045000Y-108746411D01*
X168045000Y-108473589D01*
X167991775Y-108206011D01*
X167887371Y-107953957D01*
X167735799Y-107727114D01*
X167542886Y-107534201D01*
X167316043Y-107382629D01*
X167063989Y-107278225D01*
X166796411Y-107225000D01*
X166523589Y-107225000D01*
X166256011Y-107278225D01*
X166003957Y-107382629D01*
X165777114Y-107534201D01*
X165584201Y-107727114D01*
X165432629Y-107953957D01*
X165328225Y-108206011D01*
X165275000Y-108473589D01*
X162029003Y-108473589D01*
X161977932Y-108216842D01*
X161865990Y-107946589D01*
X161703475Y-107703368D01*
X161496632Y-107496525D01*
X161322240Y-107380000D01*
X161496632Y-107263475D01*
X161662396Y-107097711D01*
X173090000Y-107097711D01*
X173090000Y-107582289D01*
X173184536Y-108057556D01*
X173369976Y-108505247D01*
X173639193Y-108908159D01*
X173981841Y-109250807D01*
X174384753Y-109520024D01*
X174832444Y-109705464D01*
X175307711Y-109800000D01*
X175792289Y-109800000D01*
X176267556Y-109705464D01*
X176715247Y-109520024D01*
X177118159Y-109250807D01*
X177460807Y-108908159D01*
X177730024Y-108505247D01*
X177915464Y-108057556D01*
X178010000Y-107582289D01*
X178010000Y-107097711D01*
X177915464Y-106622444D01*
X177730024Y-106174753D01*
X177460807Y-105771841D01*
X177118159Y-105429193D01*
X176715247Y-105159976D01*
X176267556Y-104974536D01*
X175792289Y-104880000D01*
X175307711Y-104880000D01*
X174832444Y-104974536D01*
X174384753Y-105159976D01*
X173981841Y-105429193D01*
X173639193Y-105771841D01*
X173369976Y-106174753D01*
X173184536Y-106622444D01*
X173090000Y-107097711D01*
X161662396Y-107097711D01*
X161703475Y-107056632D01*
X161865990Y-106813411D01*
X161977932Y-106543158D01*
X162035000Y-106256260D01*
X162035000Y-105963740D01*
X161977932Y-105676842D01*
X161865990Y-105406589D01*
X161703475Y-105163368D01*
X161496632Y-104956525D01*
X161322240Y-104840000D01*
X161496632Y-104723475D01*
X161703475Y-104516632D01*
X161865990Y-104273411D01*
X161977932Y-104003158D01*
X162035000Y-103716260D01*
X162035000Y-103423740D01*
X161977932Y-103136842D01*
X161865990Y-102866589D01*
X161703475Y-102623368D01*
X161496632Y-102416525D01*
X161253411Y-102254010D01*
X160983158Y-102142068D01*
X160696260Y-102085000D01*
X160403740Y-102085000D01*
X160116842Y-102142068D01*
X159846589Y-102254010D01*
X159603368Y-102416525D01*
X159396525Y-102623368D01*
X159234010Y-102866589D01*
X159122068Y-103136842D01*
X159065000Y-103423740D01*
X159065000Y-103716260D01*
X159122068Y-104003158D01*
X159234010Y-104273411D01*
X159396525Y-104516632D01*
X159603368Y-104723475D01*
X159777760Y-104840000D01*
X159603368Y-104956525D01*
X159396525Y-105163368D01*
X159234010Y-105406589D01*
X159122068Y-105676842D01*
X159065000Y-105963740D01*
X159065000Y-106256260D01*
X159122068Y-106543158D01*
X159234010Y-106813411D01*
X159396525Y-107056632D01*
X159603368Y-107263475D01*
X159777760Y-107380000D01*
X159603368Y-107496525D01*
X159396525Y-107703368D01*
X159234010Y-107946589D01*
X159122068Y-108216842D01*
X159065000Y-108503740D01*
X159065000Y-108796260D01*
X159122068Y-109083158D01*
X159234010Y-109353411D01*
X159396525Y-109596632D01*
X159603368Y-109803475D01*
X159777760Y-109920000D01*
X159603368Y-110036525D01*
X159396525Y-110243368D01*
X159234010Y-110486589D01*
X159122068Y-110756842D01*
X159065000Y-111043740D01*
X159065000Y-111336260D01*
X159122068Y-111623158D01*
X159234010Y-111893411D01*
X159396525Y-112136632D01*
X159603368Y-112343475D01*
X159777760Y-112460000D01*
X159603368Y-112576525D01*
X159396525Y-112783368D01*
X159234010Y-113026589D01*
X159122068Y-113296842D01*
X159065000Y-113583740D01*
X159065000Y-113876260D01*
X159122068Y-114163158D01*
X159234010Y-114433411D01*
X159396525Y-114676632D01*
X159603368Y-114883475D01*
X159777760Y-115000000D01*
X159603368Y-115116525D01*
X159396525Y-115323368D01*
X159234010Y-115566589D01*
X159122068Y-115836842D01*
X159065000Y-116123740D01*
X159065000Y-116416260D01*
X159122068Y-116703158D01*
X159234010Y-116973411D01*
X159396525Y-117216632D01*
X159603368Y-117423475D01*
X159777760Y-117540000D01*
X159603368Y-117656525D01*
X159396525Y-117863368D01*
X159234010Y-118106589D01*
X159122068Y-118376842D01*
X159065000Y-118663740D01*
X159065000Y-118956260D01*
X159122068Y-119243158D01*
X159234010Y-119513411D01*
X159396525Y-119756632D01*
X159528380Y-119888487D01*
X159455820Y-119910498D01*
X159345506Y-119969463D01*
X159248815Y-120048815D01*
X159169463Y-120145506D01*
X159110498Y-120255820D01*
X159074188Y-120375518D01*
X159061928Y-120500000D01*
X151181924Y-120500000D01*
X151077237Y-120395313D01*
X150743934Y-120172607D01*
X150373587Y-120019204D01*
X149980430Y-119941000D01*
X149579570Y-119941000D01*
X149186413Y-120019204D01*
X148816066Y-120172607D01*
X148482763Y-120395313D01*
X148199313Y-120678763D01*
X147976607Y-121012066D01*
X147823204Y-121382413D01*
X147745000Y-121775570D01*
X135379998Y-121775570D01*
X135367077Y-121773000D01*
X134632923Y-121773000D01*
X133912874Y-121916227D01*
X133234604Y-122197176D01*
X132624176Y-122605050D01*
X132105050Y-123124176D01*
X131697176Y-123734604D01*
X131416227Y-124412874D01*
X131273000Y-125132923D01*
X131273000Y-125867077D01*
X131416227Y-126587126D01*
X131697176Y-127265396D01*
X132105050Y-127875824D01*
X132544226Y-128315000D01*
X123685000Y-128315000D01*
X123685000Y-117527711D01*
X127190000Y-117527711D01*
X127190000Y-118012289D01*
X127284536Y-118487556D01*
X127469976Y-118935247D01*
X127739193Y-119338159D01*
X128081841Y-119680807D01*
X128484753Y-119950024D01*
X128932444Y-120135464D01*
X129407711Y-120230000D01*
X129892289Y-120230000D01*
X130367556Y-120135464D01*
X130815247Y-119950024D01*
X131218159Y-119680807D01*
X131560807Y-119338159D01*
X131830024Y-118935247D01*
X132015464Y-118487556D01*
X132057630Y-118275570D01*
X142745000Y-118275570D01*
X142745000Y-118676430D01*
X142823204Y-119069587D01*
X142976607Y-119439934D01*
X143199313Y-119773237D01*
X143482763Y-120056687D01*
X143816066Y-120279393D01*
X144186413Y-120432796D01*
X144579570Y-120511000D01*
X144980430Y-120511000D01*
X145373587Y-120432796D01*
X145743934Y-120279393D01*
X146077237Y-120056687D01*
X146360687Y-119773237D01*
X146583393Y-119439934D01*
X146736796Y-119069587D01*
X146815000Y-118676430D01*
X146815000Y-118275570D01*
X146736796Y-117882413D01*
X146583393Y-117512066D01*
X146360687Y-117178763D01*
X146077237Y-116895313D01*
X145743934Y-116672607D01*
X145373587Y-116519204D01*
X144980430Y-116441000D01*
X144579570Y-116441000D01*
X144186413Y-116519204D01*
X143816066Y-116672607D01*
X143482763Y-116895313D01*
X143199313Y-117178763D01*
X142976607Y-117512066D01*
X142823204Y-117882413D01*
X142745000Y-118275570D01*
X132057630Y-118275570D01*
X132110000Y-118012289D01*
X132110000Y-117527711D01*
X132015464Y-117052444D01*
X131830024Y-116604753D01*
X131560807Y-116201841D01*
X131218159Y-115859193D01*
X131054741Y-115750000D01*
X134611928Y-115750000D01*
X134611928Y-117250000D01*
X134624188Y-117374482D01*
X134660498Y-117494180D01*
X134719463Y-117604494D01*
X134798815Y-117701185D01*
X134895506Y-117780537D01*
X135005820Y-117839502D01*
X135125518Y-117875812D01*
X135250000Y-117888072D01*
X136750000Y-117888072D01*
X136874482Y-117875812D01*
X136994180Y-117839502D01*
X137104494Y-117780537D01*
X137201185Y-117701185D01*
X137280537Y-117604494D01*
X137339502Y-117494180D01*
X137375812Y-117374482D01*
X137388072Y-117250000D01*
X137388072Y-115998951D01*
X137464201Y-116112886D01*
X137657114Y-116305799D01*
X137883957Y-116457371D01*
X138136011Y-116561775D01*
X138403589Y-116615000D01*
X138676411Y-116615000D01*
X138943989Y-116561775D01*
X139196043Y-116457371D01*
X139422886Y-116305799D01*
X139615799Y-116112886D01*
X139767371Y-115886043D01*
X139871775Y-115633989D01*
X139925000Y-115366411D01*
X139925000Y-115093589D01*
X139871775Y-114826011D01*
X139850882Y-114775570D01*
X147745000Y-114775570D01*
X147745000Y-115176430D01*
X147823204Y-115569587D01*
X147976607Y-115939934D01*
X148199313Y-116273237D01*
X148482763Y-116556687D01*
X148816066Y-116779393D01*
X149186413Y-116932796D01*
X149579570Y-117011000D01*
X149980430Y-117011000D01*
X150373587Y-116932796D01*
X150743934Y-116779393D01*
X151077237Y-116556687D01*
X151360687Y-116273237D01*
X151583393Y-115939934D01*
X151736796Y-115569587D01*
X151815000Y-115176430D01*
X151815000Y-114775570D01*
X151736796Y-114382413D01*
X151583393Y-114012066D01*
X151360687Y-113678763D01*
X151077237Y-113395313D01*
X150743934Y-113172607D01*
X150373587Y-113019204D01*
X149980430Y-112941000D01*
X149579570Y-112941000D01*
X149186413Y-113019204D01*
X148816066Y-113172607D01*
X148482763Y-113395313D01*
X148199313Y-113678763D01*
X147976607Y-114012066D01*
X147823204Y-114382413D01*
X147745000Y-114775570D01*
X139850882Y-114775570D01*
X139767371Y-114573957D01*
X139615799Y-114347114D01*
X139422886Y-114154201D01*
X139196043Y-114002629D01*
X139093127Y-113960000D01*
X139196043Y-113917371D01*
X139422886Y-113765799D01*
X139615799Y-113572886D01*
X139767371Y-113346043D01*
X139871775Y-113093989D01*
X139925000Y-112826411D01*
X139925000Y-112553589D01*
X139871775Y-112286011D01*
X139767371Y-112033957D01*
X139615799Y-111807114D01*
X139422886Y-111614201D01*
X139196043Y-111462629D01*
X139093127Y-111420000D01*
X139196043Y-111377371D01*
X139348398Y-111275570D01*
X142745000Y-111275570D01*
X142745000Y-111676430D01*
X142823204Y-112069587D01*
X142976607Y-112439934D01*
X143199313Y-112773237D01*
X143482763Y-113056687D01*
X143816066Y-113279393D01*
X144186413Y-113432796D01*
X144579570Y-113511000D01*
X144980430Y-113511000D01*
X145373587Y-113432796D01*
X145743934Y-113279393D01*
X146077237Y-113056687D01*
X146360687Y-112773237D01*
X146583393Y-112439934D01*
X146736796Y-112069587D01*
X146815000Y-111676430D01*
X146815000Y-111275570D01*
X146736796Y-110882413D01*
X146583393Y-110512066D01*
X146360687Y-110178763D01*
X146077237Y-109895313D01*
X145743934Y-109672607D01*
X145373587Y-109519204D01*
X144980430Y-109441000D01*
X144579570Y-109441000D01*
X144186413Y-109519204D01*
X143816066Y-109672607D01*
X143482763Y-109895313D01*
X143199313Y-110178763D01*
X142976607Y-110512066D01*
X142823204Y-110882413D01*
X142745000Y-111275570D01*
X139348398Y-111275570D01*
X139422886Y-111225799D01*
X139615799Y-111032886D01*
X139767371Y-110806043D01*
X139871775Y-110553989D01*
X139925000Y-110286411D01*
X139925000Y-110013589D01*
X139871775Y-109746011D01*
X139767371Y-109493957D01*
X139615799Y-109267114D01*
X139422886Y-109074201D01*
X139196043Y-108922629D01*
X139093127Y-108880000D01*
X139196043Y-108837371D01*
X139422886Y-108685799D01*
X139615799Y-108492886D01*
X139767371Y-108266043D01*
X139871775Y-108013989D01*
X139919199Y-107775570D01*
X147745000Y-107775570D01*
X147745000Y-108176430D01*
X147823204Y-108569587D01*
X147976607Y-108939934D01*
X148199313Y-109273237D01*
X148482763Y-109556687D01*
X148816066Y-109779393D01*
X149186413Y-109932796D01*
X149579570Y-110011000D01*
X149980430Y-110011000D01*
X150373587Y-109932796D01*
X150743934Y-109779393D01*
X151077237Y-109556687D01*
X151360687Y-109273237D01*
X151583393Y-108939934D01*
X151736796Y-108569587D01*
X151815000Y-108176430D01*
X151815000Y-107775570D01*
X151736796Y-107382413D01*
X151583393Y-107012066D01*
X151360687Y-106678763D01*
X151077237Y-106395313D01*
X150743934Y-106172607D01*
X150373587Y-106019204D01*
X149980430Y-105941000D01*
X149579570Y-105941000D01*
X149186413Y-106019204D01*
X148816066Y-106172607D01*
X148482763Y-106395313D01*
X148199313Y-106678763D01*
X147976607Y-107012066D01*
X147823204Y-107382413D01*
X147745000Y-107775570D01*
X139919199Y-107775570D01*
X139925000Y-107746411D01*
X139925000Y-107473589D01*
X139871775Y-107206011D01*
X139767371Y-106953957D01*
X139615799Y-106727114D01*
X139422886Y-106534201D01*
X139196043Y-106382629D01*
X138943989Y-106278225D01*
X138676411Y-106225000D01*
X138403589Y-106225000D01*
X138136011Y-106278225D01*
X137883957Y-106382629D01*
X137657114Y-106534201D01*
X137464201Y-106727114D01*
X137312629Y-106953957D01*
X137208225Y-107206011D01*
X137155000Y-107473589D01*
X137155000Y-107746411D01*
X137208225Y-108013989D01*
X137312629Y-108266043D01*
X137464201Y-108492886D01*
X137657114Y-108685799D01*
X137883957Y-108837371D01*
X137986873Y-108880000D01*
X137883957Y-108922629D01*
X137657114Y-109074201D01*
X137464201Y-109267114D01*
X137312629Y-109493957D01*
X137208225Y-109746011D01*
X137155000Y-110013589D01*
X137155000Y-110286411D01*
X137208225Y-110553989D01*
X137312629Y-110806043D01*
X137464201Y-111032886D01*
X137657114Y-111225799D01*
X137883957Y-111377371D01*
X137986873Y-111420000D01*
X137883957Y-111462629D01*
X137657114Y-111614201D01*
X137464201Y-111807114D01*
X137312629Y-112033957D01*
X137208225Y-112286011D01*
X137155000Y-112553589D01*
X137155000Y-112826411D01*
X137208225Y-113093989D01*
X137312629Y-113346043D01*
X137464201Y-113572886D01*
X137657114Y-113765799D01*
X137883957Y-113917371D01*
X137986873Y-113960000D01*
X137883957Y-114002629D01*
X137657114Y-114154201D01*
X137464201Y-114347114D01*
X137312629Y-114573957D01*
X137208225Y-114826011D01*
X137155000Y-115093589D01*
X137155000Y-115260912D01*
X137104494Y-115219463D01*
X136994180Y-115160498D01*
X136874482Y-115124188D01*
X136766517Y-115113555D01*
X136882886Y-115035799D01*
X137075799Y-114842886D01*
X137227371Y-114616043D01*
X137331775Y-114363989D01*
X137385000Y-114096411D01*
X137385000Y-113823589D01*
X137331775Y-113556011D01*
X137227371Y-113303957D01*
X137075799Y-113077114D01*
X136882886Y-112884201D01*
X136656043Y-112732629D01*
X136553127Y-112690000D01*
X136656043Y-112647371D01*
X136882886Y-112495799D01*
X137075799Y-112302886D01*
X137227371Y-112076043D01*
X137331775Y-111823989D01*
X137385000Y-111556411D01*
X137385000Y-111283589D01*
X137331775Y-111016011D01*
X137227371Y-110763957D01*
X137075799Y-110537114D01*
X136882886Y-110344201D01*
X136656043Y-110192629D01*
X136553127Y-110150000D01*
X136656043Y-110107371D01*
X136882886Y-109955799D01*
X137075799Y-109762886D01*
X137227371Y-109536043D01*
X137331775Y-109283989D01*
X137385000Y-109016411D01*
X137385000Y-108743589D01*
X137331775Y-108476011D01*
X137227371Y-108223957D01*
X137075799Y-107997114D01*
X136882886Y-107804201D01*
X136656043Y-107652629D01*
X136403989Y-107548225D01*
X136136411Y-107495000D01*
X135863589Y-107495000D01*
X135596011Y-107548225D01*
X135343957Y-107652629D01*
X135117114Y-107804201D01*
X134924201Y-107997114D01*
X134772629Y-108223957D01*
X134668225Y-108476011D01*
X134615000Y-108743589D01*
X134615000Y-109016411D01*
X134668225Y-109283989D01*
X134772629Y-109536043D01*
X134924201Y-109762886D01*
X135117114Y-109955799D01*
X135343957Y-110107371D01*
X135446873Y-110150000D01*
X135343957Y-110192629D01*
X135117114Y-110344201D01*
X134924201Y-110537114D01*
X134772629Y-110763957D01*
X134668225Y-111016011D01*
X134615000Y-111283589D01*
X134615000Y-111556411D01*
X134668225Y-111823989D01*
X134772629Y-112076043D01*
X134924201Y-112302886D01*
X135117114Y-112495799D01*
X135343957Y-112647371D01*
X135446873Y-112690000D01*
X135343957Y-112732629D01*
X135117114Y-112884201D01*
X134924201Y-113077114D01*
X134772629Y-113303957D01*
X134668225Y-113556011D01*
X134615000Y-113823589D01*
X134615000Y-114096411D01*
X134668225Y-114363989D01*
X134772629Y-114616043D01*
X134924201Y-114842886D01*
X135117114Y-115035799D01*
X135233483Y-115113555D01*
X135125518Y-115124188D01*
X135005820Y-115160498D01*
X134895506Y-115219463D01*
X134798815Y-115298815D01*
X134719463Y-115395506D01*
X134660498Y-115505820D01*
X134624188Y-115625518D01*
X134611928Y-115750000D01*
X131054741Y-115750000D01*
X130815247Y-115589976D01*
X130367556Y-115404536D01*
X129892289Y-115310000D01*
X129407711Y-115310000D01*
X128932444Y-115404536D01*
X128484753Y-115589976D01*
X128081841Y-115859193D01*
X127739193Y-116201841D01*
X127469976Y-116604753D01*
X127284536Y-117052444D01*
X127190000Y-117527711D01*
X123685000Y-117527711D01*
X123685000Y-106097711D01*
X127190000Y-106097711D01*
X127190000Y-106582289D01*
X127284536Y-107057556D01*
X127469976Y-107505247D01*
X127739193Y-107908159D01*
X128081841Y-108250807D01*
X128484753Y-108520024D01*
X128932444Y-108705464D01*
X129407711Y-108800000D01*
X129892289Y-108800000D01*
X130367556Y-108705464D01*
X130815247Y-108520024D01*
X131218159Y-108250807D01*
X131560807Y-107908159D01*
X131830024Y-107505247D01*
X132015464Y-107057556D01*
X132110000Y-106582289D01*
X132110000Y-106097711D01*
X132015464Y-105622444D01*
X131830024Y-105174753D01*
X131560807Y-104771841D01*
X131218159Y-104429193D01*
X130988246Y-104275570D01*
X142745000Y-104275570D01*
X142745000Y-104676430D01*
X142823204Y-105069587D01*
X142976607Y-105439934D01*
X143199313Y-105773237D01*
X143482763Y-106056687D01*
X143816066Y-106279393D01*
X144186413Y-106432796D01*
X144579570Y-106511000D01*
X144980430Y-106511000D01*
X145373587Y-106432796D01*
X145743934Y-106279393D01*
X146077237Y-106056687D01*
X146360687Y-105773237D01*
X146583393Y-105439934D01*
X146736796Y-105069587D01*
X146815000Y-104676430D01*
X146815000Y-104275570D01*
X146736796Y-103882413D01*
X146583393Y-103512066D01*
X146360687Y-103178763D01*
X146077237Y-102895313D01*
X145743934Y-102672607D01*
X145373587Y-102519204D01*
X144980430Y-102441000D01*
X144579570Y-102441000D01*
X144186413Y-102519204D01*
X143816066Y-102672607D01*
X143482763Y-102895313D01*
X143199313Y-103178763D01*
X142976607Y-103512066D01*
X142823204Y-103882413D01*
X142745000Y-104275570D01*
X130988246Y-104275570D01*
X130815247Y-104159976D01*
X130367556Y-103974536D01*
X129892289Y-103880000D01*
X129407711Y-103880000D01*
X128932444Y-103974536D01*
X128484753Y-104159976D01*
X128081841Y-104429193D01*
X127739193Y-104771841D01*
X127469976Y-105174753D01*
X127284536Y-105622444D01*
X127190000Y-106097711D01*
X123685000Y-106097711D01*
X123685000Y-97685000D01*
X132544226Y-97685000D01*
X132105050Y-98124176D01*
G04 #@! TA.AperFunction,NonConductor*
D17*
G36*
X132105050Y-98124176D02*
G01*
X131697176Y-98734604D01*
X131416227Y-99412874D01*
X131273000Y-100132923D01*
X131273000Y-100867077D01*
X131416227Y-101587126D01*
X131697176Y-102265396D01*
X132105050Y-102875824D01*
X132624176Y-103394950D01*
X133234604Y-103802824D01*
X133912874Y-104083773D01*
X134632923Y-104227000D01*
X135367077Y-104227000D01*
X136087126Y-104083773D01*
X136765396Y-103802824D01*
X137375824Y-103394950D01*
X137894950Y-102875824D01*
X138302824Y-102265396D01*
X138583773Y-101587126D01*
X138727000Y-100867077D01*
X138727000Y-100775570D01*
X147745000Y-100775570D01*
X147745000Y-101176430D01*
X147823204Y-101569587D01*
X147976607Y-101939934D01*
X148199313Y-102273237D01*
X148482763Y-102556687D01*
X148816066Y-102779393D01*
X149186413Y-102932796D01*
X149579570Y-103011000D01*
X149980430Y-103011000D01*
X150373587Y-102932796D01*
X150743934Y-102779393D01*
X151077237Y-102556687D01*
X151360687Y-102273237D01*
X151583393Y-101939934D01*
X151736796Y-101569587D01*
X151815000Y-101176430D01*
X151815000Y-100775570D01*
X151736796Y-100382413D01*
X151583393Y-100012066D01*
X151360687Y-99678763D01*
X151077237Y-99395313D01*
X150743934Y-99172607D01*
X150373587Y-99019204D01*
X149980430Y-98941000D01*
X149579570Y-98941000D01*
X149186413Y-99019204D01*
X148816066Y-99172607D01*
X148482763Y-99395313D01*
X148199313Y-99678763D01*
X147976607Y-100012066D01*
X147823204Y-100382413D01*
X147745000Y-100775570D01*
X138727000Y-100775570D01*
X138727000Y-100132923D01*
X138583773Y-99412874D01*
X138302824Y-98734604D01*
X137894950Y-98124176D01*
X137455774Y-97685000D01*
X168544226Y-97685000D01*
X168105050Y-98124176D01*
X167697176Y-98734604D01*
X167416227Y-99412874D01*
X167273000Y-100132923D01*
X167273000Y-100867077D01*
X167416227Y-101587126D01*
X167697176Y-102265396D01*
X168105050Y-102875824D01*
X168624176Y-103394950D01*
X169234604Y-103802824D01*
X169912874Y-104083773D01*
X170632923Y-104227000D01*
X171367077Y-104227000D01*
X172087126Y-104083773D01*
X172765396Y-103802824D01*
X173375824Y-103394950D01*
X173894950Y-102875824D01*
X174302824Y-102265396D01*
X174583773Y-101587126D01*
X174727000Y-100867077D01*
X174727000Y-100132923D01*
X174583773Y-99412874D01*
X174302824Y-98734604D01*
X173894950Y-98124176D01*
X173455774Y-97685000D01*
X182315000Y-97685000D01*
X182315001Y-128315000D01*
X173455774Y-128315000D01*
X173894950Y-127875824D01*
X174302824Y-127265396D01*
X174583773Y-126587126D01*
X174727000Y-125867077D01*
X174727000Y-125132923D01*
X174583773Y-124412874D01*
X174302824Y-123734604D01*
X173894950Y-123124176D01*
X173375824Y-122605050D01*
X172765396Y-122197176D01*
X172087126Y-121916227D01*
X171367077Y-121773000D01*
X170632923Y-121773000D01*
X169912874Y-121916227D01*
X169234604Y-122197176D01*
X168624176Y-122605050D01*
X168105050Y-123124176D01*
X167697176Y-123734604D01*
X167416227Y-124412874D01*
X167273000Y-125132923D01*
X167273000Y-125867077D01*
X167416227Y-126587126D01*
X167697176Y-127265396D01*
X168105050Y-127875824D01*
X168544226Y-128315000D01*
X137455774Y-128315000D01*
X137894950Y-127875824D01*
X138302824Y-127265396D01*
X138583773Y-126587126D01*
X138727000Y-125867077D01*
X138727000Y-125275570D01*
X142745000Y-125275570D01*
X142745000Y-125676430D01*
X142823204Y-126069587D01*
X142976607Y-126439934D01*
X143199313Y-126773237D01*
X143482763Y-127056687D01*
X143816066Y-127279393D01*
X144186413Y-127432796D01*
X144579570Y-127511000D01*
X144980430Y-127511000D01*
X145373587Y-127432796D01*
X145743934Y-127279393D01*
X146077237Y-127056687D01*
X146360687Y-126773237D01*
X146583393Y-126439934D01*
X146736796Y-126069587D01*
X146815000Y-125676430D01*
X146815000Y-125275570D01*
X146736796Y-124882413D01*
X146583393Y-124512066D01*
X146360687Y-124178763D01*
X146077237Y-123895313D01*
X145743934Y-123672607D01*
X145373587Y-123519204D01*
X144980430Y-123441000D01*
X144579570Y-123441000D01*
X144186413Y-123519204D01*
X143816066Y-123672607D01*
X143482763Y-123895313D01*
X143199313Y-124178763D01*
X142976607Y-124512066D01*
X142823204Y-124882413D01*
X142745000Y-125275570D01*
X138727000Y-125275570D01*
X138727000Y-125132923D01*
X138583773Y-124412874D01*
X138302824Y-123734604D01*
X137894950Y-123124176D01*
X137375824Y-122605050D01*
X136765396Y-122197176D01*
X136087126Y-121916227D01*
X135379998Y-121775570D01*
X147745000Y-121775570D01*
X147745000Y-122176430D01*
X147823204Y-122569587D01*
X147976607Y-122939934D01*
X148199313Y-123273237D01*
X148482763Y-123556687D01*
X148816066Y-123779393D01*
X149186413Y-123932796D01*
X149579570Y-124011000D01*
X149980430Y-124011000D01*
X150373587Y-123932796D01*
X150743934Y-123779393D01*
X151077237Y-123556687D01*
X151360687Y-123273237D01*
X151583393Y-122939934D01*
X151736796Y-122569587D01*
X151815000Y-122176430D01*
X151815000Y-121775570D01*
X151736796Y-121382413D01*
X151583393Y-121012066D01*
X151360687Y-120678763D01*
X151181924Y-120500000D01*
X159061928Y-120500000D01*
X159061928Y-122200000D01*
X159074188Y-122324482D01*
X159110498Y-122444180D01*
X159169463Y-122554494D01*
X159248815Y-122651185D01*
X159345506Y-122730537D01*
X159455820Y-122789502D01*
X159575518Y-122825812D01*
X159700000Y-122838072D01*
X161400000Y-122838072D01*
X161524482Y-122825812D01*
X161644180Y-122789502D01*
X161754494Y-122730537D01*
X161851185Y-122651185D01*
X161930537Y-122554494D01*
X161989502Y-122444180D01*
X162025812Y-122324482D01*
X162038072Y-122200000D01*
X162038072Y-120500000D01*
X162025812Y-120375518D01*
X161989502Y-120255820D01*
X161930537Y-120145506D01*
X161851185Y-120048815D01*
X161754494Y-119969463D01*
X161644180Y-119910498D01*
X161571620Y-119888487D01*
X161703475Y-119756632D01*
X161865990Y-119513411D01*
X161977932Y-119243158D01*
X162035000Y-118956260D01*
X162035000Y-118663740D01*
X161977932Y-118376842D01*
X161865990Y-118106589D01*
X161703475Y-117863368D01*
X161496632Y-117656525D01*
X161322240Y-117540000D01*
X161496632Y-117423475D01*
X161703475Y-117216632D01*
X161865990Y-116973411D01*
X161977932Y-116703158D01*
X162035000Y-116416260D01*
X162035000Y-116123740D01*
X161977932Y-115836842D01*
X161865990Y-115566589D01*
X161703475Y-115323368D01*
X161496632Y-115116525D01*
X161322240Y-115000000D01*
X161496632Y-114883475D01*
X161703475Y-114676632D01*
X161865990Y-114433411D01*
X161977932Y-114163158D01*
X162035000Y-113876260D01*
X162035000Y-113583740D01*
X161977932Y-113296842D01*
X161865990Y-113026589D01*
X161703475Y-112783368D01*
X161496632Y-112576525D01*
X161322240Y-112460000D01*
X161496632Y-112343475D01*
X161703475Y-112136632D01*
X161865990Y-111893411D01*
X161977932Y-111623158D01*
X162035000Y-111336260D01*
X162035000Y-111043740D01*
X161977932Y-110756842D01*
X161865990Y-110486589D01*
X161703475Y-110243368D01*
X161496632Y-110036525D01*
X161322240Y-109920000D01*
X161496632Y-109803475D01*
X161703475Y-109596632D01*
X161865990Y-109353411D01*
X161977932Y-109083158D01*
X162035000Y-108796260D01*
X162035000Y-108503740D01*
X162029003Y-108473589D01*
X165275000Y-108473589D01*
X165275000Y-108746411D01*
X165328225Y-109013989D01*
X165432629Y-109266043D01*
X165584201Y-109492886D01*
X165777114Y-109685799D01*
X166003957Y-109837371D01*
X166106873Y-109880000D01*
X166003957Y-109922629D01*
X165777114Y-110074201D01*
X165584201Y-110267114D01*
X165432629Y-110493957D01*
X165328225Y-110746011D01*
X165275000Y-111013589D01*
X165275000Y-111286411D01*
X165328225Y-111553989D01*
X165432629Y-111806043D01*
X165584201Y-112032886D01*
X165777114Y-112225799D01*
X166003957Y-112377371D01*
X166106873Y-112420000D01*
X166003957Y-112462629D01*
X165777114Y-112614201D01*
X165584201Y-112807114D01*
X165432629Y-113033957D01*
X165328225Y-113286011D01*
X165275000Y-113553589D01*
X165275000Y-113826411D01*
X165328225Y-114093989D01*
X165432629Y-114346043D01*
X165584201Y-114572886D01*
X165777114Y-114765799D01*
X166003957Y-114917371D01*
X166106873Y-114960000D01*
X166003957Y-115002629D01*
X165777114Y-115154201D01*
X165584201Y-115347114D01*
X165432629Y-115573957D01*
X165328225Y-115826011D01*
X165275000Y-116093589D01*
X165275000Y-116366411D01*
X165328225Y-116633989D01*
X165432629Y-116886043D01*
X165584201Y-117112886D01*
X165777114Y-117305799D01*
X166003957Y-117457371D01*
X166256011Y-117561775D01*
X166523589Y-117615000D01*
X166796411Y-117615000D01*
X167063989Y-117561775D01*
X167316043Y-117457371D01*
X167542886Y-117305799D01*
X167735799Y-117112886D01*
X167811928Y-116998951D01*
X167811928Y-118250000D01*
X167824188Y-118374482D01*
X167860498Y-118494180D01*
X167919463Y-118604494D01*
X167998815Y-118701185D01*
X168095506Y-118780537D01*
X168205820Y-118839502D01*
X168325518Y-118875812D01*
X168450000Y-118888072D01*
X169950000Y-118888072D01*
X170074482Y-118875812D01*
X170194180Y-118839502D01*
X170304494Y-118780537D01*
X170401185Y-118701185D01*
X170480537Y-118604494D01*
X170521579Y-118527711D01*
X173090000Y-118527711D01*
X173090000Y-119012289D01*
X173184536Y-119487556D01*
X173369976Y-119935247D01*
X173639193Y-120338159D01*
X173981841Y-120680807D01*
X174384753Y-120950024D01*
X174832444Y-121135464D01*
X175307711Y-121230000D01*
X175792289Y-121230000D01*
X176267556Y-121135464D01*
X176715247Y-120950024D01*
X177118159Y-120680807D01*
X177460807Y-120338159D01*
X177730024Y-119935247D01*
X177915464Y-119487556D01*
X178010000Y-119012289D01*
X178010000Y-118527711D01*
X177915464Y-118052444D01*
X177730024Y-117604753D01*
X177460807Y-117201841D01*
X177118159Y-116859193D01*
X176715247Y-116589976D01*
X176267556Y-116404536D01*
X175792289Y-116310000D01*
X175307711Y-116310000D01*
X174832444Y-116404536D01*
X174384753Y-116589976D01*
X173981841Y-116859193D01*
X173639193Y-117201841D01*
X173369976Y-117604753D01*
X173184536Y-118052444D01*
X173090000Y-118527711D01*
X170521579Y-118527711D01*
X170539502Y-118494180D01*
X170575812Y-118374482D01*
X170588072Y-118250000D01*
X170588072Y-116750000D01*
X170575812Y-116625518D01*
X170539502Y-116505820D01*
X170480537Y-116395506D01*
X170401185Y-116298815D01*
X170304494Y-116219463D01*
X170194180Y-116160498D01*
X170074482Y-116124188D01*
X169966517Y-116113555D01*
X170082886Y-116035799D01*
X170275799Y-115842886D01*
X170427371Y-115616043D01*
X170531775Y-115363989D01*
X170585000Y-115096411D01*
X170585000Y-114823589D01*
X170531775Y-114556011D01*
X170427371Y-114303957D01*
X170275799Y-114077114D01*
X170082886Y-113884201D01*
X169856043Y-113732629D01*
X169753127Y-113690000D01*
X169856043Y-113647371D01*
X170082886Y-113495799D01*
X170275799Y-113302886D01*
X170427371Y-113076043D01*
X170531775Y-112823989D01*
X170585000Y-112556411D01*
X170585000Y-112283589D01*
X170531775Y-112016011D01*
X170427371Y-111763957D01*
X170275799Y-111537114D01*
X170082886Y-111344201D01*
X169856043Y-111192629D01*
X169753127Y-111150000D01*
X169856043Y-111107371D01*
X170082886Y-110955799D01*
X170275799Y-110762886D01*
X170427371Y-110536043D01*
X170531775Y-110283989D01*
X170585000Y-110016411D01*
X170585000Y-109743589D01*
X170531775Y-109476011D01*
X170427371Y-109223957D01*
X170275799Y-108997114D01*
X170082886Y-108804201D01*
X169856043Y-108652629D01*
X169603989Y-108548225D01*
X169336411Y-108495000D01*
X169063589Y-108495000D01*
X168796011Y-108548225D01*
X168543957Y-108652629D01*
X168317114Y-108804201D01*
X168124201Y-108997114D01*
X167972629Y-109223957D01*
X167868225Y-109476011D01*
X167815000Y-109743589D01*
X167815000Y-110016411D01*
X167868225Y-110283989D01*
X167972629Y-110536043D01*
X168124201Y-110762886D01*
X168317114Y-110955799D01*
X168543957Y-111107371D01*
X168646873Y-111150000D01*
X168543957Y-111192629D01*
X168317114Y-111344201D01*
X168124201Y-111537114D01*
X167972629Y-111763957D01*
X167868225Y-112016011D01*
X167815000Y-112283589D01*
X167815000Y-112556411D01*
X167868225Y-112823989D01*
X167972629Y-113076043D01*
X168124201Y-113302886D01*
X168317114Y-113495799D01*
X168543957Y-113647371D01*
X168646873Y-113690000D01*
X168543957Y-113732629D01*
X168317114Y-113884201D01*
X168124201Y-114077114D01*
X167972629Y-114303957D01*
X167868225Y-114556011D01*
X167815000Y-114823589D01*
X167815000Y-115096411D01*
X167868225Y-115363989D01*
X167972629Y-115616043D01*
X168124201Y-115842886D01*
X168317114Y-116035799D01*
X168433483Y-116113555D01*
X168325518Y-116124188D01*
X168205820Y-116160498D01*
X168095506Y-116219463D01*
X168045000Y-116260912D01*
X168045000Y-116093589D01*
X167991775Y-115826011D01*
X167887371Y-115573957D01*
X167735799Y-115347114D01*
X167542886Y-115154201D01*
X167316043Y-115002629D01*
X167213127Y-114960000D01*
X167316043Y-114917371D01*
X167542886Y-114765799D01*
X167735799Y-114572886D01*
X167887371Y-114346043D01*
X167991775Y-114093989D01*
X168045000Y-113826411D01*
X168045000Y-113553589D01*
X167991775Y-113286011D01*
X167887371Y-113033957D01*
X167735799Y-112807114D01*
X167542886Y-112614201D01*
X167316043Y-112462629D01*
X167213127Y-112420000D01*
X167316043Y-112377371D01*
X167542886Y-112225799D01*
X167735799Y-112032886D01*
X167887371Y-111806043D01*
X167991775Y-111553989D01*
X168045000Y-111286411D01*
X168045000Y-111013589D01*
X167991775Y-110746011D01*
X167887371Y-110493957D01*
X167735799Y-110267114D01*
X167542886Y-110074201D01*
X167316043Y-109922629D01*
X167213127Y-109880000D01*
X167316043Y-109837371D01*
X167542886Y-109685799D01*
X167735799Y-109492886D01*
X167887371Y-109266043D01*
X167991775Y-109013989D01*
X168045000Y-108746411D01*
X168045000Y-108473589D01*
X167991775Y-108206011D01*
X167887371Y-107953957D01*
X167735799Y-107727114D01*
X167542886Y-107534201D01*
X167316043Y-107382629D01*
X167063989Y-107278225D01*
X166796411Y-107225000D01*
X166523589Y-107225000D01*
X166256011Y-107278225D01*
X166003957Y-107382629D01*
X165777114Y-107534201D01*
X165584201Y-107727114D01*
X165432629Y-107953957D01*
X165328225Y-108206011D01*
X165275000Y-108473589D01*
X162029003Y-108473589D01*
X161977932Y-108216842D01*
X161865990Y-107946589D01*
X161703475Y-107703368D01*
X161496632Y-107496525D01*
X161322240Y-107380000D01*
X161496632Y-107263475D01*
X161662396Y-107097711D01*
X173090000Y-107097711D01*
X173090000Y-107582289D01*
X173184536Y-108057556D01*
X173369976Y-108505247D01*
X173639193Y-108908159D01*
X173981841Y-109250807D01*
X174384753Y-109520024D01*
X174832444Y-109705464D01*
X175307711Y-109800000D01*
X175792289Y-109800000D01*
X176267556Y-109705464D01*
X176715247Y-109520024D01*
X177118159Y-109250807D01*
X177460807Y-108908159D01*
X177730024Y-108505247D01*
X177915464Y-108057556D01*
X178010000Y-107582289D01*
X178010000Y-107097711D01*
X177915464Y-106622444D01*
X177730024Y-106174753D01*
X177460807Y-105771841D01*
X177118159Y-105429193D01*
X176715247Y-105159976D01*
X176267556Y-104974536D01*
X175792289Y-104880000D01*
X175307711Y-104880000D01*
X174832444Y-104974536D01*
X174384753Y-105159976D01*
X173981841Y-105429193D01*
X173639193Y-105771841D01*
X173369976Y-106174753D01*
X173184536Y-106622444D01*
X173090000Y-107097711D01*
X161662396Y-107097711D01*
X161703475Y-107056632D01*
X161865990Y-106813411D01*
X161977932Y-106543158D01*
X162035000Y-106256260D01*
X162035000Y-105963740D01*
X161977932Y-105676842D01*
X161865990Y-105406589D01*
X161703475Y-105163368D01*
X161496632Y-104956525D01*
X161322240Y-104840000D01*
X161496632Y-104723475D01*
X161703475Y-104516632D01*
X161865990Y-104273411D01*
X161977932Y-104003158D01*
X162035000Y-103716260D01*
X162035000Y-103423740D01*
X161977932Y-103136842D01*
X161865990Y-102866589D01*
X161703475Y-102623368D01*
X161496632Y-102416525D01*
X161253411Y-102254010D01*
X160983158Y-102142068D01*
X160696260Y-102085000D01*
X160403740Y-102085000D01*
X160116842Y-102142068D01*
X159846589Y-102254010D01*
X159603368Y-102416525D01*
X159396525Y-102623368D01*
X159234010Y-102866589D01*
X159122068Y-103136842D01*
X159065000Y-103423740D01*
X159065000Y-103716260D01*
X159122068Y-104003158D01*
X159234010Y-104273411D01*
X159396525Y-104516632D01*
X159603368Y-104723475D01*
X159777760Y-104840000D01*
X159603368Y-104956525D01*
X159396525Y-105163368D01*
X159234010Y-105406589D01*
X159122068Y-105676842D01*
X159065000Y-105963740D01*
X159065000Y-106256260D01*
X159122068Y-106543158D01*
X159234010Y-106813411D01*
X159396525Y-107056632D01*
X159603368Y-107263475D01*
X159777760Y-107380000D01*
X159603368Y-107496525D01*
X159396525Y-107703368D01*
X159234010Y-107946589D01*
X159122068Y-108216842D01*
X159065000Y-108503740D01*
X159065000Y-108796260D01*
X159122068Y-109083158D01*
X159234010Y-109353411D01*
X159396525Y-109596632D01*
X159603368Y-109803475D01*
X159777760Y-109920000D01*
X159603368Y-110036525D01*
X159396525Y-110243368D01*
X159234010Y-110486589D01*
X159122068Y-110756842D01*
X159065000Y-111043740D01*
X159065000Y-111336260D01*
X159122068Y-111623158D01*
X159234010Y-111893411D01*
X159396525Y-112136632D01*
X159603368Y-112343475D01*
X159777760Y-112460000D01*
X159603368Y-112576525D01*
X159396525Y-112783368D01*
X159234010Y-113026589D01*
X159122068Y-113296842D01*
X159065000Y-113583740D01*
X159065000Y-113876260D01*
X159122068Y-114163158D01*
X159234010Y-114433411D01*
X159396525Y-114676632D01*
X159603368Y-114883475D01*
X159777760Y-115000000D01*
X159603368Y-115116525D01*
X159396525Y-115323368D01*
X159234010Y-115566589D01*
X159122068Y-115836842D01*
X159065000Y-116123740D01*
X159065000Y-116416260D01*
X159122068Y-116703158D01*
X159234010Y-116973411D01*
X159396525Y-117216632D01*
X159603368Y-117423475D01*
X159777760Y-117540000D01*
X159603368Y-117656525D01*
X159396525Y-117863368D01*
X159234010Y-118106589D01*
X159122068Y-118376842D01*
X159065000Y-118663740D01*
X159065000Y-118956260D01*
X159122068Y-119243158D01*
X159234010Y-119513411D01*
X159396525Y-119756632D01*
X159528380Y-119888487D01*
X159455820Y-119910498D01*
X159345506Y-119969463D01*
X159248815Y-120048815D01*
X159169463Y-120145506D01*
X159110498Y-120255820D01*
X159074188Y-120375518D01*
X159061928Y-120500000D01*
X151181924Y-120500000D01*
X151077237Y-120395313D01*
X150743934Y-120172607D01*
X150373587Y-120019204D01*
X149980430Y-119941000D01*
X149579570Y-119941000D01*
X149186413Y-120019204D01*
X148816066Y-120172607D01*
X148482763Y-120395313D01*
X148199313Y-120678763D01*
X147976607Y-121012066D01*
X147823204Y-121382413D01*
X147745000Y-121775570D01*
X135379998Y-121775570D01*
X135367077Y-121773000D01*
X134632923Y-121773000D01*
X133912874Y-121916227D01*
X133234604Y-122197176D01*
X132624176Y-122605050D01*
X132105050Y-123124176D01*
X131697176Y-123734604D01*
X131416227Y-124412874D01*
X131273000Y-125132923D01*
X131273000Y-125867077D01*
X131416227Y-126587126D01*
X131697176Y-127265396D01*
X132105050Y-127875824D01*
X132544226Y-128315000D01*
X123685000Y-128315000D01*
X123685000Y-117527711D01*
X127190000Y-117527711D01*
X127190000Y-118012289D01*
X127284536Y-118487556D01*
X127469976Y-118935247D01*
X127739193Y-119338159D01*
X128081841Y-119680807D01*
X128484753Y-119950024D01*
X128932444Y-120135464D01*
X129407711Y-120230000D01*
X129892289Y-120230000D01*
X130367556Y-120135464D01*
X130815247Y-119950024D01*
X131218159Y-119680807D01*
X131560807Y-119338159D01*
X131830024Y-118935247D01*
X132015464Y-118487556D01*
X132057630Y-118275570D01*
X142745000Y-118275570D01*
X142745000Y-118676430D01*
X142823204Y-119069587D01*
X142976607Y-119439934D01*
X143199313Y-119773237D01*
X143482763Y-120056687D01*
X143816066Y-120279393D01*
X144186413Y-120432796D01*
X144579570Y-120511000D01*
X144980430Y-120511000D01*
X145373587Y-120432796D01*
X145743934Y-120279393D01*
X146077237Y-120056687D01*
X146360687Y-119773237D01*
X146583393Y-119439934D01*
X146736796Y-119069587D01*
X146815000Y-118676430D01*
X146815000Y-118275570D01*
X146736796Y-117882413D01*
X146583393Y-117512066D01*
X146360687Y-117178763D01*
X146077237Y-116895313D01*
X145743934Y-116672607D01*
X145373587Y-116519204D01*
X144980430Y-116441000D01*
X144579570Y-116441000D01*
X144186413Y-116519204D01*
X143816066Y-116672607D01*
X143482763Y-116895313D01*
X143199313Y-117178763D01*
X142976607Y-117512066D01*
X142823204Y-117882413D01*
X142745000Y-118275570D01*
X132057630Y-118275570D01*
X132110000Y-118012289D01*
X132110000Y-117527711D01*
X132015464Y-117052444D01*
X131830024Y-116604753D01*
X131560807Y-116201841D01*
X131218159Y-115859193D01*
X131054741Y-115750000D01*
X134611928Y-115750000D01*
X134611928Y-117250000D01*
X134624188Y-117374482D01*
X134660498Y-117494180D01*
X134719463Y-117604494D01*
X134798815Y-117701185D01*
X134895506Y-117780537D01*
X135005820Y-117839502D01*
X135125518Y-117875812D01*
X135250000Y-117888072D01*
X136750000Y-117888072D01*
X136874482Y-117875812D01*
X136994180Y-117839502D01*
X137104494Y-117780537D01*
X137201185Y-117701185D01*
X137280537Y-117604494D01*
X137339502Y-117494180D01*
X137375812Y-117374482D01*
X137388072Y-117250000D01*
X137388072Y-115998951D01*
X137464201Y-116112886D01*
X137657114Y-116305799D01*
X137883957Y-116457371D01*
X138136011Y-116561775D01*
X138403589Y-116615000D01*
X138676411Y-116615000D01*
X138943989Y-116561775D01*
X139196043Y-116457371D01*
X139422886Y-116305799D01*
X139615799Y-116112886D01*
X139767371Y-115886043D01*
X139871775Y-115633989D01*
X139925000Y-115366411D01*
X139925000Y-115093589D01*
X139871775Y-114826011D01*
X139850882Y-114775570D01*
X147745000Y-114775570D01*
X147745000Y-115176430D01*
X147823204Y-115569587D01*
X147976607Y-115939934D01*
X148199313Y-116273237D01*
X148482763Y-116556687D01*
X148816066Y-116779393D01*
X149186413Y-116932796D01*
X149579570Y-117011000D01*
X149980430Y-117011000D01*
X150373587Y-116932796D01*
X150743934Y-116779393D01*
X151077237Y-116556687D01*
X151360687Y-116273237D01*
X151583393Y-115939934D01*
X151736796Y-115569587D01*
X151815000Y-115176430D01*
X151815000Y-114775570D01*
X151736796Y-114382413D01*
X151583393Y-114012066D01*
X151360687Y-113678763D01*
X151077237Y-113395313D01*
X150743934Y-113172607D01*
X150373587Y-113019204D01*
X149980430Y-112941000D01*
X149579570Y-112941000D01*
X149186413Y-113019204D01*
X148816066Y-113172607D01*
X148482763Y-113395313D01*
X148199313Y-113678763D01*
X147976607Y-114012066D01*
X147823204Y-114382413D01*
X147745000Y-114775570D01*
X139850882Y-114775570D01*
X139767371Y-114573957D01*
X139615799Y-114347114D01*
X139422886Y-114154201D01*
X139196043Y-114002629D01*
X139093127Y-113960000D01*
X139196043Y-113917371D01*
X139422886Y-113765799D01*
X139615799Y-113572886D01*
X139767371Y-113346043D01*
X139871775Y-113093989D01*
X139925000Y-112826411D01*
X139925000Y-112553589D01*
X139871775Y-112286011D01*
X139767371Y-112033957D01*
X139615799Y-111807114D01*
X139422886Y-111614201D01*
X139196043Y-111462629D01*
X139093127Y-111420000D01*
X139196043Y-111377371D01*
X139348398Y-111275570D01*
X142745000Y-111275570D01*
X142745000Y-111676430D01*
X142823204Y-112069587D01*
X142976607Y-112439934D01*
X143199313Y-112773237D01*
X143482763Y-113056687D01*
X143816066Y-113279393D01*
X144186413Y-113432796D01*
X144579570Y-113511000D01*
X144980430Y-113511000D01*
X145373587Y-113432796D01*
X145743934Y-113279393D01*
X146077237Y-113056687D01*
X146360687Y-112773237D01*
X146583393Y-112439934D01*
X146736796Y-112069587D01*
X146815000Y-111676430D01*
X146815000Y-111275570D01*
X146736796Y-110882413D01*
X146583393Y-110512066D01*
X146360687Y-110178763D01*
X146077237Y-109895313D01*
X145743934Y-109672607D01*
X145373587Y-109519204D01*
X144980430Y-109441000D01*
X144579570Y-109441000D01*
X144186413Y-109519204D01*
X143816066Y-109672607D01*
X143482763Y-109895313D01*
X143199313Y-110178763D01*
X142976607Y-110512066D01*
X142823204Y-110882413D01*
X142745000Y-111275570D01*
X139348398Y-111275570D01*
X139422886Y-111225799D01*
X139615799Y-111032886D01*
X139767371Y-110806043D01*
X139871775Y-110553989D01*
X139925000Y-110286411D01*
X139925000Y-110013589D01*
X139871775Y-109746011D01*
X139767371Y-109493957D01*
X139615799Y-109267114D01*
X139422886Y-109074201D01*
X139196043Y-108922629D01*
X139093127Y-108880000D01*
X139196043Y-108837371D01*
X139422886Y-108685799D01*
X139615799Y-108492886D01*
X139767371Y-108266043D01*
X139871775Y-108013989D01*
X139919199Y-107775570D01*
X147745000Y-107775570D01*
X147745000Y-108176430D01*
X147823204Y-108569587D01*
X147976607Y-108939934D01*
X148199313Y-109273237D01*
X148482763Y-109556687D01*
X148816066Y-109779393D01*
X149186413Y-109932796D01*
X149579570Y-110011000D01*
X149980430Y-110011000D01*
X150373587Y-109932796D01*
X150743934Y-109779393D01*
X151077237Y-109556687D01*
X151360687Y-109273237D01*
X151583393Y-108939934D01*
X151736796Y-108569587D01*
X151815000Y-108176430D01*
X151815000Y-107775570D01*
X151736796Y-107382413D01*
X151583393Y-107012066D01*
X151360687Y-106678763D01*
X151077237Y-106395313D01*
X150743934Y-106172607D01*
X150373587Y-106019204D01*
X149980430Y-105941000D01*
X149579570Y-105941000D01*
X149186413Y-106019204D01*
X148816066Y-106172607D01*
X148482763Y-106395313D01*
X148199313Y-106678763D01*
X147976607Y-107012066D01*
X147823204Y-107382413D01*
X147745000Y-107775570D01*
X139919199Y-107775570D01*
X139925000Y-107746411D01*
X139925000Y-107473589D01*
X139871775Y-107206011D01*
X139767371Y-106953957D01*
X139615799Y-106727114D01*
X139422886Y-106534201D01*
X139196043Y-106382629D01*
X138943989Y-106278225D01*
X138676411Y-106225000D01*
X138403589Y-106225000D01*
X138136011Y-106278225D01*
X137883957Y-106382629D01*
X137657114Y-106534201D01*
X137464201Y-106727114D01*
X137312629Y-106953957D01*
X137208225Y-107206011D01*
X137155000Y-107473589D01*
X137155000Y-107746411D01*
X137208225Y-108013989D01*
X137312629Y-108266043D01*
X137464201Y-108492886D01*
X137657114Y-108685799D01*
X137883957Y-108837371D01*
X137986873Y-108880000D01*
X137883957Y-108922629D01*
X137657114Y-109074201D01*
X137464201Y-109267114D01*
X137312629Y-109493957D01*
X137208225Y-109746011D01*
X137155000Y-110013589D01*
X137155000Y-110286411D01*
X137208225Y-110553989D01*
X137312629Y-110806043D01*
X137464201Y-111032886D01*
X137657114Y-111225799D01*
X137883957Y-111377371D01*
X137986873Y-111420000D01*
X137883957Y-111462629D01*
X137657114Y-111614201D01*
X137464201Y-111807114D01*
X137312629Y-112033957D01*
X137208225Y-112286011D01*
X137155000Y-112553589D01*
X137155000Y-112826411D01*
X137208225Y-113093989D01*
X137312629Y-113346043D01*
X137464201Y-113572886D01*
X137657114Y-113765799D01*
X137883957Y-113917371D01*
X137986873Y-113960000D01*
X137883957Y-114002629D01*
X137657114Y-114154201D01*
X137464201Y-114347114D01*
X137312629Y-114573957D01*
X137208225Y-114826011D01*
X137155000Y-115093589D01*
X137155000Y-115260912D01*
X137104494Y-115219463D01*
X136994180Y-115160498D01*
X136874482Y-115124188D01*
X136766517Y-115113555D01*
X136882886Y-115035799D01*
X137075799Y-114842886D01*
X137227371Y-114616043D01*
X137331775Y-114363989D01*
X137385000Y-114096411D01*
X137385000Y-113823589D01*
X137331775Y-113556011D01*
X137227371Y-113303957D01*
X137075799Y-113077114D01*
X136882886Y-112884201D01*
X136656043Y-112732629D01*
X136553127Y-112690000D01*
X136656043Y-112647371D01*
X136882886Y-112495799D01*
X137075799Y-112302886D01*
X137227371Y-112076043D01*
X137331775Y-111823989D01*
X137385000Y-111556411D01*
X137385000Y-111283589D01*
X137331775Y-111016011D01*
X137227371Y-110763957D01*
X137075799Y-110537114D01*
X136882886Y-110344201D01*
X136656043Y-110192629D01*
X136553127Y-110150000D01*
X136656043Y-110107371D01*
X136882886Y-109955799D01*
X137075799Y-109762886D01*
X137227371Y-109536043D01*
X137331775Y-109283989D01*
X137385000Y-109016411D01*
X137385000Y-108743589D01*
X137331775Y-108476011D01*
X137227371Y-108223957D01*
X137075799Y-107997114D01*
X136882886Y-107804201D01*
X136656043Y-107652629D01*
X136403989Y-107548225D01*
X136136411Y-107495000D01*
X135863589Y-107495000D01*
X135596011Y-107548225D01*
X135343957Y-107652629D01*
X135117114Y-107804201D01*
X134924201Y-107997114D01*
X134772629Y-108223957D01*
X134668225Y-108476011D01*
X134615000Y-108743589D01*
X134615000Y-109016411D01*
X134668225Y-109283989D01*
X134772629Y-109536043D01*
X134924201Y-109762886D01*
X135117114Y-109955799D01*
X135343957Y-110107371D01*
X135446873Y-110150000D01*
X135343957Y-110192629D01*
X135117114Y-110344201D01*
X134924201Y-110537114D01*
X134772629Y-110763957D01*
X134668225Y-111016011D01*
X134615000Y-111283589D01*
X134615000Y-111556411D01*
X134668225Y-111823989D01*
X134772629Y-112076043D01*
X134924201Y-112302886D01*
X135117114Y-112495799D01*
X135343957Y-112647371D01*
X135446873Y-112690000D01*
X135343957Y-112732629D01*
X135117114Y-112884201D01*
X134924201Y-113077114D01*
X134772629Y-113303957D01*
X134668225Y-113556011D01*
X134615000Y-113823589D01*
X134615000Y-114096411D01*
X134668225Y-114363989D01*
X134772629Y-114616043D01*
X134924201Y-114842886D01*
X135117114Y-115035799D01*
X135233483Y-115113555D01*
X135125518Y-115124188D01*
X135005820Y-115160498D01*
X134895506Y-115219463D01*
X134798815Y-115298815D01*
X134719463Y-115395506D01*
X134660498Y-115505820D01*
X134624188Y-115625518D01*
X134611928Y-115750000D01*
X131054741Y-115750000D01*
X130815247Y-115589976D01*
X130367556Y-115404536D01*
X129892289Y-115310000D01*
X129407711Y-115310000D01*
X128932444Y-115404536D01*
X128484753Y-115589976D01*
X128081841Y-115859193D01*
X127739193Y-116201841D01*
X127469976Y-116604753D01*
X127284536Y-117052444D01*
X127190000Y-117527711D01*
X123685000Y-117527711D01*
X123685000Y-106097711D01*
X127190000Y-106097711D01*
X127190000Y-106582289D01*
X127284536Y-107057556D01*
X127469976Y-107505247D01*
X127739193Y-107908159D01*
X128081841Y-108250807D01*
X128484753Y-108520024D01*
X128932444Y-108705464D01*
X129407711Y-108800000D01*
X129892289Y-108800000D01*
X130367556Y-108705464D01*
X130815247Y-108520024D01*
X131218159Y-108250807D01*
X131560807Y-107908159D01*
X131830024Y-107505247D01*
X132015464Y-107057556D01*
X132110000Y-106582289D01*
X132110000Y-106097711D01*
X132015464Y-105622444D01*
X131830024Y-105174753D01*
X131560807Y-104771841D01*
X131218159Y-104429193D01*
X130988246Y-104275570D01*
X142745000Y-104275570D01*
X142745000Y-104676430D01*
X142823204Y-105069587D01*
X142976607Y-105439934D01*
X143199313Y-105773237D01*
X143482763Y-106056687D01*
X143816066Y-106279393D01*
X144186413Y-106432796D01*
X144579570Y-106511000D01*
X144980430Y-106511000D01*
X145373587Y-106432796D01*
X145743934Y-106279393D01*
X146077237Y-106056687D01*
X146360687Y-105773237D01*
X146583393Y-105439934D01*
X146736796Y-105069587D01*
X146815000Y-104676430D01*
X146815000Y-104275570D01*
X146736796Y-103882413D01*
X146583393Y-103512066D01*
X146360687Y-103178763D01*
X146077237Y-102895313D01*
X145743934Y-102672607D01*
X145373587Y-102519204D01*
X144980430Y-102441000D01*
X144579570Y-102441000D01*
X144186413Y-102519204D01*
X143816066Y-102672607D01*
X143482763Y-102895313D01*
X143199313Y-103178763D01*
X142976607Y-103512066D01*
X142823204Y-103882413D01*
X142745000Y-104275570D01*
X130988246Y-104275570D01*
X130815247Y-104159976D01*
X130367556Y-103974536D01*
X129892289Y-103880000D01*
X129407711Y-103880000D01*
X128932444Y-103974536D01*
X128484753Y-104159976D01*
X128081841Y-104429193D01*
X127739193Y-104771841D01*
X127469976Y-105174753D01*
X127284536Y-105622444D01*
X127190000Y-106097711D01*
X123685000Y-106097711D01*
X123685000Y-97685000D01*
X132544226Y-97685000D01*
X132105050Y-98124176D01*
G37*
G04 #@! TD.AperFunction*
M02*
